\relax 
\providecommand\hyper@newdestlabel[2]{}
\providecommand\HyperFirstAtBeginDocument{\AtBeginDocument}
\HyperFirstAtBeginDocument{\ifx\hyper@anchor\@undefined
\global\let\oldcontentsline\contentsline
\gdef\contentsline#1#2#3#4{\oldcontentsline{#1}{#2}{#3}}
\global\let\oldnewlabel\newlabel
\gdef\newlabel#1#2{\newlabelxx{#1}#2}
\gdef\newlabelxx#1#2#3#4#5#6{\oldnewlabel{#1}{{#2}{#3}}}
\AtEndDocument{\ifx\hyper@anchor\@undefined
\let\contentsline\oldcontentsline
\let\newlabel\oldnewlabel
\fi}
\fi}
\global\let\hyper@last\relax 
\gdef\HyperFirstAtBeginDocument#1{#1}
\providecommand\HyField@AuxAddToFields[1]{}
\providecommand\HyField@AuxAddToCoFields[2]{}
\bibstyle{dcu}
\citation{annual2021}
\citation{eurostat2020b}
\citation{factsheet2020}
\citation{eurostat2008}
\citation{eurostat2008}
\citation{eurostat2008}
\citation{eurostat2020a}
\citation{eurostat2020a}
\citation{eurostat2020a}
\citation{eurostat2020a}
\providecommand \oddpage@label [2]{}
\@writefile{toc}{\contentsline {section}{\numberline {1}Introduction}{1}{section.1}\protected@file@percent }
\newlabel{sec:introduction}{{1}{1}{Introduction}{section.1}{}}
\citation{pimentel2005}
\citation{pimentel2005}
\citation{pimentel2005}
\citation{ifaagm}
\citation{pimentel2005}
\citation{pimentel2005}
\citation{pimentel2005}
\citation{frankenberger2003}
\citation{pimentel2005}
\citation{dimitri2002}
\@writefile{toc}{\contentsline {subsection}{\numberline {1.1}Rise in organic production in EU}{2}{subsection.1.1}\protected@file@percent }
\@writefile{lof}{\contentsline {figure}{\numberline {1}{\ignorespaces Share of total organic area in total utilised agricultural area (UUA) \cite {eurostat2020a}\relax }}{2}{figure.caption.1}\protected@file@percent }
\providecommand*\caption@xref[2]{\@setref\relax\@undefined{#1}}
\newlabel{fig:eurostat}{{1}{2}{Share of total organic area in total utilised agricultural area (UUA) \cite {eurostat2020a}\relax }{figure.caption.1}{}}
\@writefile{toc}{\contentsline {subsection}{\numberline {1.2}Benefit of organic production}{2}{subsection.1.2}\protected@file@percent }
\citation{steede2018}
\@writefile{lot}{\contentsline {table}{\numberline {1}{\ignorespaces Percentage of UAA converted to organic production for countries with comparable land areas to Ireland.\relax }}{3}{table.caption.2}\protected@file@percent }
\newlabel{tab:UAAperc}{{1}{3}{Percentage of UAA converted to organic production for countries with comparable land areas to Ireland.\relax }{table.caption.2}{}}
\@writefile{toc}{\contentsline {subsection}{\numberline {1.3}Sentiment Analysis}{3}{subsection.1.3}\protected@file@percent }
\citation{tradefactsheet2020}
\citation{revieworganicfood}
\citation{agricultureseptember2020}
\citation{sasi11}
\citation{sasi12}
\citation{sasi11}
\citation{sasi13}
\citation{sasi13}
\citation{sasi13}
\citation{sasi14}
\@writefile{toc}{\contentsline {subsection}{\numberline {1.4}Import / Export Analysis}{4}{subsection.1.4}\protected@file@percent }
\@writefile{toc}{\contentsline {subsection}{\numberline {1.5}Organic Dairy Farming}{4}{subsection.1.5}\protected@file@percent }
\citation{monteith1965}
\citation{hargreaves1985}
\citation{thornthwaite1948}
\citation{allen1998}
\@writefile{toc}{\contentsline {subsection}{\numberline {1.6}Project Management}{5}{subsection.1.6}\protected@file@percent }
\@writefile{toc}{\contentsline {section}{\numberline {2}Theory}{5}{section.2}\protected@file@percent }
\newlabel{sec:theory}{{2}{5}{Theory}{section.2}{}}
\@writefile{toc}{\contentsline {subsection}{\numberline {2.1}Potential Evapotranspiration}{5}{subsection.2.1}\protected@file@percent }
\citation{keawsang2018}
\citation{keawsang2018}
\citation{decl}
\citation{ishola2019}
\citation{faoAnnex}
\@writefile{lot}{\contentsline {table}{\numberline {2}{\ignorespaces Necessary inputs for the three methods of calculating PET\relax }}{6}{table.caption.3}\protected@file@percent }
\newlabel{tab:ET0}{{2}{6}{Necessary inputs for the three methods of calculating PET\relax }{table.caption.3}{}}
\@writefile{toc}{\contentsline {subsubsection}{\numberline {2.1.1}\r {A}ngstrom-Prescott equation}{6}{subsubsection.2.1.1}\protected@file@percent }
\newlabel{eq:AP}{{1}{6}{\r {A}ngstrom-Prescott equation}{equation.2.1}{}}
\newlabel{eq:omega}{{4}{6}{\r {A}ngstrom-Prescott equation}{equation.2.4}{}}
\newlabel{eq:delta}{{5}{6}{\r {A}ngstrom-Prescott equation}{equation.2.5}{}}
\@writefile{toc}{\contentsline {subsubsection}{\numberline {2.1.2}Haregreaves' equation}{6}{subsubsection.2.1.2}\protected@file@percent }
\newlabel{eq:HG}{{8}{6}{Haregreaves' equation}{equation.2.8}{}}
\citation{pyeto}
\citation{statsmodel}
\citation{statsmodel}
\citation{feng2017}
\citation{patil2016}
\citation{mohammadi2015}
\citation{neupy}
\citation{colston2018}
\citation{kirkwood2010}
\@writefile{toc}{\contentsline {subsubsection}{\numberline {2.1.3}Thornthwaite's equation}{7}{subsubsection.2.1.3}\protected@file@percent }
\newlabel{eq:TH}{{9}{7}{Thornthwaite's equation}{equation.2.9}{}}
\@writefile{toc}{\contentsline {subsubsection}{\numberline {2.1.4}Python Implementation}{7}{subsubsection.2.1.4}\protected@file@percent }
\@writefile{toc}{\contentsline {subsubsection}{\numberline {2.1.5}Statistical Analysis}{7}{subsubsection.2.1.5}\protected@file@percent }
\newlabel{eq:corr}{{12}{7}{Statistical Analysis}{equation.2.12}{}}
\citation{eurostatorganiccrop}
\citation{faostatcrops}
\citation{sasi15}
\citation{sasi16}
\citation{sasi17}
\citation{sasi18}
\citation{casement}
\citation{malin_head}
\citation{belmullet}
\citation{valentia}
\@writefile{lof}{\contentsline {figure}{\numberline {2}{\ignorespaces The topology of the GRNN.\relax }}{8}{figure.caption.4}\protected@file@percent }
\newlabel{fig:grnn_top}{{2}{8}{The topology of the GRNN.\relax }{figure.caption.4}{}}
\@writefile{toc}{\contentsline {section}{\numberline {3}Method}{8}{section.3}\protected@file@percent }
\newlabel{sec:method}{{3}{8}{Method}{section.3}{}}
\@writefile{toc}{\contentsline {subsection}{\numberline {3.1}Datasets}{8}{subsection.3.1}\protected@file@percent }
\@writefile{toc}{\contentsline {subsubsection}{\numberline {3.1.1}Licensing}{8}{subsubsection.3.1.1}\protected@file@percent }
\@writefile{toc}{\contentsline {subsubsection}{\numberline {3.1.2}Data}{8}{subsubsection.3.1.2}\protected@file@percent }
\citation{ref1}
\citation{ref2}
\citation{ref3}
\citation{ref4}
\citation{singh2022}
\@writefile{toc}{\contentsline {subsection}{\numberline {3.2}Sentiment Analysis}{9}{subsection.3.2}\protected@file@percent }
\@writefile{toc}{\contentsline {subsubsection}{\numberline {3.2.1}Business understanding}{9}{subsubsection.3.2.1}\protected@file@percent }
\@writefile{toc}{\contentsline {subsubsection}{\numberline {3.2.2}Data Understanding}{9}{subsubsection.3.2.2}\protected@file@percent }
\@writefile{toc}{\contentsline {subsubsection}{\numberline {3.2.3}Data Preparation}{9}{subsubsection.3.2.3}\protected@file@percent }
\@writefile{toc}{\contentsline {subsubsection}{\numberline {3.2.4}Data collection}{9}{subsubsection.3.2.4}\protected@file@percent }
\@writefile{toc}{\contentsline {subsubsection}{\numberline {3.2.5}4.1 Data Pre-processing}{9}{subsubsection.3.2.5}\protected@file@percent }
\citation{eurostatorganiccrop}
\citation{jenkins2020}
\citation{faostatcrops}
\citation{worldometerseurope}
\citation{pythonanova}
\@writefile{lof}{\contentsline {figure}{\numberline {3}{\ignorespaces \relax }}{10}{figure.caption.5}\protected@file@percent }
\@writefile{toc}{\contentsline {subsection}{\numberline {3.3}Import / Export Analysis}{10}{subsection.3.3}\protected@file@percent }
\citation{sasi2}
\@writefile{toc}{\contentsline {subsection}{\numberline {3.4}Organic Dairy farming}{11}{subsection.3.4}\protected@file@percent }
\@writefile{toc}{\contentsline {subsubsection}{\numberline {3.4.1}Data Prep \& E.D.A}{11}{subsubsection.3.4.1}\protected@file@percent }
\@writefile{lof}{\contentsline {figure}{\numberline {4}{\ignorespaces By using the above method, the data from each country and the list of products have been verified.\relax }}{11}{figure.caption.6}\protected@file@percent }
\citation{sasi3}
\@writefile{lof}{\contentsline {subfigure}{\numberline{(a)}{\ignorespaces {Total Production of Organic products in tones from Ireland. Sources org\_production\_Dairy Products\_$2011$-$2020$.csv and org\_production\_Dairy Products\_$2002$-$2011$.csv}}}{12}{subfigure.5.1}\protected@file@percent }
\@writefile{lof}{\contentsline {subfigure}{\numberline{(b)}{\ignorespaces {Total Production quantity in Ireland from $2001$-$2020$}}}{12}{subfigure.5.2}\protected@file@percent }
\@writefile{toc}{\contentsline {subsubsection}{\numberline {3.4.2}Machine Learning Algorithm Testing}{12}{subsubsection.3.4.2}\protected@file@percent }
\@writefile{lof}{\contentsline {figure}{\numberline {5}{\ignorespaces Correlation, Heatmap and Pairplot using the processed Dairy Production dataset.\relax }}{13}{figure.caption.8}\protected@file@percent }
\@writefile{lof}{\contentsline {subfigure}{\numberline{(c)}{\ignorespaces {Correlation Matrix}}}{13}{subfigure.5.3}\protected@file@percent }
\@writefile{lof}{\contentsline {subfigure}{\numberline{(d)}{\ignorespaces {Heatmap}}}{13}{subfigure.5.4}\protected@file@percent }
\@writefile{lof}{\contentsline {subfigure}{\numberline{(e)}{\ignorespaces {Pairplot to show the relationship between the selected features with grouped product types as hue.}}}{13}{subfigure.5.5}\protected@file@percent }
\@writefile{toc}{\contentsline {subsection}{\numberline {3.5}Machine Learning }{13}{subsection.3.5}\protected@file@percent }
\citation{sasi4}
\@writefile{lof}{\contentsline {figure}{\numberline {6}{\ignorespaces Screenshot of the Model accuracy from Jupyter notebook\relax }}{14}{figure.caption.9}\protected@file@percent }
\@writefile{lof}{\contentsline {subfigure}{\numberline{(a)}{\ignorespaces {Model accuracy from different Regressor Models.}}}{14}{subfigure.6.1}\protected@file@percent }
\@writefile{lof}{\contentsline {subfigure}{\numberline{(b)}{\ignorespaces {Model accuracy from different classifier models.}}}{14}{subfigure.6.2}\protected@file@percent }
\citation{sasi5}
\citation{sasi5}
\@writefile{lof}{\contentsline {figure}{\numberline {7}{\ignorespaces Plots to show the results from RandomizedSearch\relax }}{15}{figure.caption.10}\protected@file@percent }
\@writefile{lof}{\contentsline {subfigure}{\numberline{(a)}{\ignorespaces {Distribution of predicted values.}}}{15}{subfigure.7.1}\protected@file@percent }
\@writefile{lof}{\contentsline {subfigure}{\numberline{(b)}{\ignorespaces {Scatter Plot of predicted values.}}}{15}{subfigure.7.2}\protected@file@percent }
\@writefile{lof}{\contentsline {figure}{\numberline {8}{\ignorespaces Plots to show the results from RandomizedSearch.\relax }}{16}{figure.caption.11}\protected@file@percent }
\@writefile{lof}{\contentsline {subfigure}{\numberline{(a)}{\ignorespaces {Distribution of Predicted Value.}}}{16}{subfigure.8.1}\protected@file@percent }
\@writefile{lof}{\contentsline {subfigure}{\numberline{(b)}{\ignorespaces {Scatter Plot of predicted values.}}}{16}{subfigure.8.2}\protected@file@percent }
\@writefile{lof}{\contentsline {figure}{\numberline {9}{\ignorespaces Plot to show the Predicted values using Decision Tree Regressor.\relax }}{16}{figure.caption.12}\protected@file@percent }
\@writefile{toc}{\contentsline {subsubsection}{\numberline {3.5.1}Statistics}{16}{subsubsection.3.5.1}\protected@file@percent }
\citation{ishola2019}
\@writefile{lof}{\contentsline {figure}{\numberline {10}{\ignorespaces A plot to show the probability density of the given data.\relax }}{19}{figure.caption.13}\protected@file@percent }
\@writefile{toc}{\contentsline {subsection}{\numberline {3.6}Potential Evapotranspiration}{19}{subsection.3.6}\protected@file@percent }
\@writefile{lof}{\contentsline {figure}{\numberline {11}{\ignorespaces Simple chart showing the flow of data through the analysis.\relax }}{19}{figure.caption.14}\protected@file@percent }
\newlabel{fig:data_flow}{{11}{19}{Simple chart showing the flow of data through the analysis.\relax }{figure.caption.14}{}}
\citation{yang2020}
\@writefile{lof}{\contentsline {figure}{\numberline {12}{\ignorespaces Map showing the location of each weather station used in this analysis,\relax }}{20}{figure.caption.15}\protected@file@percent }
\newlabel{fig:map}{{12}{20}{Map showing the location of each weather station used in this analysis,\relax }{figure.caption.15}{}}
\citation{ref6}
\@writefile{lof}{\contentsline {figure}{\numberline {13}{\ignorespaces Residuals from ARIMA fitting of sample data.\relax }}{21}{figure.caption.16}\protected@file@percent }
\newlabel{fig:resid}{{13}{21}{Residuals from ARIMA fitting of sample data.\relax }{figure.caption.16}{}}
\citation{ref7}
\@writefile{toc}{\contentsline {section}{\numberline {4}Results}{22}{section.4}\protected@file@percent }
\newlabel{sec:results}{{4}{22}{Results}{section.4}{}}
\@writefile{toc}{\contentsline {subsection}{\numberline {4.1}Sentiment Analysis}{22}{subsection.4.1}\protected@file@percent }
\@writefile{toc}{\contentsline {subsubsection}{\numberline {4.1.1}Sentiment Analysis using VADER}{22}{subsubsection.4.1.1}\protected@file@percent }
\@writefile{lof}{\contentsline {figure}{\numberline {14}{\ignorespaces \relax }}{22}{figure.caption.17}\protected@file@percent }
\@writefile{toc}{\contentsline {subsubsection}{\numberline {4.1.2}Using NLTK for NLP with Python}{22}{subsubsection.4.1.2}\protected@file@percent }
\@writefile{toc}{\contentsline {subsubsection}{\numberline {4.1.3}Splitting our data into Train and Test subset}{22}{subsubsection.4.1.3}\protected@file@percent }
\@writefile{toc}{\contentsline {subsubsection}{\numberline {4.1.4}Model Evaluation}{22}{subsubsection.4.1.4}\protected@file@percent }
\@writefile{lof}{\contentsline {figure}{\numberline {15}{\ignorespaces \relax }}{23}{figure.caption.18}\protected@file@percent }
\citation{novak2021}
\@writefile{lof}{\contentsline {figure}{\numberline {16}{\ignorespaces \relax }}{24}{figure.caption.19}\protected@file@percent }
\@writefile{lof}{\contentsline {figure}{\numberline {17}{\ignorespaces \relax }}{24}{figure.caption.20}\protected@file@percent }
\@writefile{lot}{\contentsline {table}{\numberline {3}{\ignorespaces \relax }}{25}{table.caption.21}\protected@file@percent }
\@writefile{lof}{\contentsline {figure}{\numberline {18}{\ignorespaces \relax }}{25}{figure.caption.22}\protected@file@percent }
\@writefile{lot}{\contentsline {table}{\numberline {4}{\ignorespaces \relax }}{25}{table.caption.23}\protected@file@percent }
\citation{sasi6}
\@writefile{lof}{\contentsline {figure}{\numberline {19}{\ignorespaces \relax }}{26}{figure.caption.24}\protected@file@percent }
\@writefile{toc}{\contentsline {subsection}{\numberline {4.2}Organic Dairy Farming}{26}{subsection.4.2}\protected@file@percent }
\@writefile{toc}{\contentsline {subsubsection}{\numberline {4.2.1}Future Prediction}{26}{subsubsection.4.2.1}\protected@file@percent }
\@writefile{lof}{\contentsline {figure}{\numberline {20}{\ignorespaces A boxplot to show the newly predicted values using the selected Model.\relax }}{27}{figure.caption.25}\protected@file@percent }
\@writefile{toc}{\contentsline {subsubsection}{\numberline {4.2.2}Analysis on Organic Dairy Milking Cows}{27}{subsubsection.4.2.2}\protected@file@percent }
\@writefile{lof}{\contentsline {figure}{\numberline {21}{\ignorespaces Total number of Organic Dairy cows in Ireland from $2002$ to $2020$. Source: Organic\_cows\_$2001$-$2011$.csv and Organic\_cows\_$2012$-$2020$.csv.\relax }}{27}{figure.caption.26}\protected@file@percent }
\citation{sasi7}
\@writefile{lof}{\contentsline {figure}{\numberline {22}{\ignorespaces Percentage change in the dairy cows count in Ireland from $2002$ to $2020$. Source: Organic\_cows\_$2001$-$2011$.csv and Organic\_cows\_$2012$-$2020$.csv.\relax }}{28}{figure.caption.27}\protected@file@percent }
\@writefile{toc}{\contentsline {subsubsection}{\numberline {4.2.3}Analysis on Organic Dairy Product Producers}{28}{subsubsection.4.2.3}\protected@file@percent }
\@writefile{lof}{\contentsline {figure}{\numberline {23}{\ignorespaces Total number of Organic Dairy cows in Ireland from $2002$ to $2020$. Source: org\_cpreact\_\_custom\_$1985475$\_linear.csv and org\_cpreact\_h\_\_custom\_$1985492$\_linear.csv.\relax }}{28}{figure.caption.28}\protected@file@percent }
\newlabel{fig:sasi1}{{23}{28}{Total number of Organic Dairy cows in Ireland from $2002$ to $2020$. Source: org\_cpreact\_\_custom\_$1985475$\_linear.csv and org\_cpreact\_h\_\_custom\_$1985492$\_linear.csv.\relax }{figure.caption.28}{}}
\@writefile{toc}{\contentsline {subsubsection}{\numberline {4.2.4}Data Representation - Interactive Visualization of Geographical Data}{29}{subsubsection.4.2.4}\protected@file@percent }
\@writefile{lof}{\contentsline {figure}{\numberline {24}{\ignorespaces Geomap with the Plotly user account.\relax }}{29}{figure.caption.29}\protected@file@percent }
\newlabel{fig:sasi2}{{24}{29}{Geomap with the Plotly user account.\relax }{figure.caption.29}{}}
\citation{sasi8}
\@writefile{lof}{\contentsline {figure}{\numberline {25}{\ignorespaces Choropleth map.\relax }}{30}{figure.caption.30}\protected@file@percent }
\newlabel{fig:sasi3}{{25}{30}{Choropleth map.\relax }{figure.caption.30}{}}
\@writefile{toc}{\contentsline {subsection}{\numberline {4.3}Import / Export Analysis}{31}{subsection.4.3}\protected@file@percent }
\@writefile{lot}{\contentsline {table}{\numberline {5}{\ignorespaces Root mean squared error (RMSE) for Linear regression models based on beef and veal imports for selected European countries ($1992$-$2020$).\relax }}{31}{table.caption.31}\protected@file@percent }
\newlabel{tab:}{{5}{31}{Root mean squared error (RMSE) for Linear regression models based on beef and veal imports for selected European countries ($1992$-$2020$).\relax }{table.caption.31}{}}
\@writefile{lot}{\contentsline {table}{\numberline {6}{\ignorespaces Root mean squared error (RMSE) for Linear regression models based on beef and veal exports for selected European countries (1$992$-$2020$).\relax }}{31}{table.caption.32}\protected@file@percent }
\newlabel{tab:}{{6}{31}{Root mean squared error (RMSE) for Linear regression models based on beef and veal exports for selected European countries (1$992$-$2020$).\relax }{table.caption.32}{}}
\@writefile{lof}{\contentsline {figure}{\numberline {26}{\ignorespaces Raw data and Linear model plotted Estonia’s exports of beef and veal \relax }}{32}{figure.caption.33}\protected@file@percent }
\newlabel{fig:aid1}{{26}{32}{Raw data and Linear model plotted Estonia’s exports of beef and veal \relax }{figure.caption.33}{}}
\@writefile{lof}{\contentsline {figure}{\numberline {27}{\ignorespaces Raw data and Linear model plotted Switzerland’s exports of Sheep meat\relax }}{32}{figure.caption.34}\protected@file@percent }
\@writefile{lot}{\contentsline {table}{\numberline {7}{\ignorespaces Summary statistics of export value (thousands of US dollars) grouped by agricultural item\relax }}{33}{table.caption.35}\protected@file@percent }
\newlabel{tab:aid3}{{7}{33}{Summary statistics of export value (thousands of US dollars) grouped by agricultural item\relax }{table.caption.35}{}}
\@writefile{lot}{\contentsline {table}{\numberline {8}{\ignorespaces Summary statistics of import value (thousands of US dollars) grouped by agricultural item\relax }}{33}{table.caption.36}\protected@file@percent }
\newlabel{tab:aid4}{{8}{33}{Summary statistics of import value (thousands of US dollars) grouped by agricultural item\relax }{table.caption.36}{}}
\@writefile{toc}{\contentsline {subsection}{\numberline {4.4}Potential Evapotranspiration}{33}{subsection.4.4}\protected@file@percent }
\@writefile{toc}{\contentsline {subsubsection}{\numberline {4.4.1}Daily Averages per Month}{33}{subsubsection.4.4.1}\protected@file@percent }
\@writefile{lof}{\contentsline {figure}{\numberline {28}{\ignorespaces Results of GRNN using Hargreaves' equation for Casement Aerodrome.\relax }}{33}{figure.caption.37}\protected@file@percent }
\newlabel{fig:CA_HG}{{28}{33}{Results of GRNN using Hargreaves' equation for Casement Aerodrome.\relax }{figure.caption.37}{}}
\@writefile{lof}{\contentsline {figure}{\numberline {29}{\ignorespaces Results of GRNN using Hargreaves' equation for Malin Head.\relax }}{34}{figure.caption.38}\protected@file@percent }
\newlabel{fig:MH_HG}{{29}{34}{Results of GRNN using Hargreaves' equation for Malin Head.\relax }{figure.caption.38}{}}
\@writefile{lof}{\contentsline {figure}{\numberline {30}{\ignorespaces Results of GRNN using Hargreaves' equation for Valentia.\relax }}{34}{figure.caption.39}\protected@file@percent }
\newlabel{fig:VA_HG}{{30}{34}{Results of GRNN using Hargreaves' equation for Valentia.\relax }{figure.caption.39}{}}
\@writefile{lof}{\contentsline {figure}{\numberline {31}{\ignorespaces Results of GRNN using Hargreaves' equation for Belmullet.\relax }}{35}{figure.caption.40}\protected@file@percent }
\newlabel{fig:BM_HG}{{31}{35}{Results of GRNN using Hargreaves' equation for Belmullet.\relax }{figure.caption.40}{}}
\@writefile{toc}{\contentsline {subsubsection}{\numberline {4.4.2}Monthly Averages}{35}{subsubsection.4.4.2}\protected@file@percent }
\@writefile{lof}{\contentsline {figure}{\numberline {32}{\ignorespaces Results of GRNN using Thornthwaite's equation for Casement Aerodrome.\relax }}{35}{figure.caption.41}\protected@file@percent }
\newlabel{fig:CA_TH}{{32}{35}{Results of GRNN using Thornthwaite's equation for Casement Aerodrome.\relax }{figure.caption.41}{}}
\@writefile{lof}{\contentsline {figure}{\numberline {33}{\ignorespaces Results of GRNN using Thornthwaite's equation for Malin Head.\relax }}{36}{figure.caption.42}\protected@file@percent }
\newlabel{fig:MH_TH}{{33}{36}{Results of GRNN using Thornthwaite's equation for Malin Head.\relax }{figure.caption.42}{}}
\@writefile{lof}{\contentsline {figure}{\numberline {34}{\ignorespaces Results of GRNN using Thornthwaite's equation for Valentia.\relax }}{36}{figure.caption.43}\protected@file@percent }
\newlabel{fig:VA_TH}{{34}{36}{Results of GRNN using Thornthwaite's equation for Valentia.\relax }{figure.caption.43}{}}
\@writefile{lof}{\contentsline {figure}{\numberline {35}{\ignorespaces Results of GRNN using Thornthwaite's equation for Belmullet.\relax }}{36}{figure.caption.44}\protected@file@percent }
\newlabel{fig:BM_TH}{{35}{36}{Results of GRNN using Thornthwaite's equation for Belmullet.\relax }{figure.caption.44}{}}
\@writefile{toc}{\contentsline {subsubsection}{\numberline {4.4.3}Statistical Results}{37}{subsubsection.4.4.3}\protected@file@percent }
\@writefile{lot}{\contentsline {table}{\numberline {9}{\ignorespaces Correlation coefficients between inputs to Thornthwaite's equation and their respective outputs and standard error on the fit parameters for the straight line fit to the same.\relax }}{37}{table.caption.45}\protected@file@percent }
\newlabel{tab:corr_err}{{9}{37}{Correlation coefficients between inputs to Thornthwaite's equation and their respective outputs and standard error on the fit parameters for the straight line fit to the same.\relax }{table.caption.45}{}}
\@writefile{lof}{\contentsline {figure}{\numberline {36}{\ignorespaces Sample plots of inputs vs. outputs for Thornthwaite's equation.\relax }}{37}{figure.caption.46}\protected@file@percent }
\newlabel{fig:io}{{36}{37}{Sample plots of inputs vs. outputs for Thornthwaite's equation.\relax }{figure.caption.46}{}}
\@writefile{lof}{\contentsline {figure}{\numberline {37}{\ignorespaces Line of best fit to the scatter of forecast mean temperature vs. predicted PET\relax }}{37}{figure.caption.47}\protected@file@percent }
\newlabel{fig:line}{{37}{37}{Line of best fit to the scatter of forecast mean temperature vs. predicted PET\relax }{figure.caption.47}{}}
\@writefile{toc}{\contentsline {section}{\numberline {5}Discussion}{38}{section.5}\protected@file@percent }
\newlabel{sec:discussion}{{5}{38}{Discussion}{section.5}{}}
\@writefile{toc}{\contentsline {subsection}{\numberline {5.1}Sentiment Analysis}{38}{subsection.5.1}\protected@file@percent }
\@writefile{toc}{\contentsline {subsection}{\numberline {5.2}Organic Dairy Farming}{38}{subsection.5.2}\protected@file@percent }
\@writefile{lof}{\contentsline {figure}{\numberline {38}{\ignorespaces Barplot to show the percentage of of number of cows in European countries\relax }}{39}{figure.caption.48}\protected@file@percent }
\@writefile{lof}{\contentsline {figure}{\numberline {39}{\ignorespaces Barplot to show the percentage of of number of Organic Product producers in European countries\relax }}{39}{figure.caption.49}\protected@file@percent }
\@writefile{toc}{\contentsline {subsection}{\numberline {5.3}Import / Export Analysis}{40}{subsection.5.3}\protected@file@percent }
\@writefile{toc}{\contentsline {subsection}{\numberline {5.4}Potential Evapotranspiration}{40}{subsection.5.4}\protected@file@percent }
\@writefile{lot}{\contentsline {table}{\numberline {10}{\ignorespaces Recorded $ET_0$ Dublin Airport $2019$\relax }}{40}{table.caption.50}\protected@file@percent }
\newlabel{tab:daa}{{10}{40}{Recorded $ET_0$ Dublin Airport $2019$\relax }{table.caption.50}{}}
\@writefile{toc}{\contentsline {section}{\numberline {6}Conclusion}{41}{section.6}\protected@file@percent }
\newlabel{sec:conclusion}{{6}{41}{Conclusion}{section.6}{}}
\@writefile{toc}{\contentsline {subsection}{\numberline {6.1}Sentiment Analysis}{41}{subsection.6.1}\protected@file@percent }
\@writefile{toc}{\contentsline {subsection}{\numberline {6.2}Organic Dairy Farming}{41}{subsection.6.2}\protected@file@percent }
\@writefile{toc}{\contentsline {subsection}{\numberline {6.3}Import / Export Analysis}{41}{subsection.6.3}\protected@file@percent }
\bibdata{report/report}
\bibcite{allen1998}{{1}{1998}{{Allen et~al.}}{{Allen, Pereira, Raes, Smith et~al.}}}
\bibcite{ref7}{{2}{n.d.}{{analyticsvidhya}}{{}}}
\bibcite{sasi12}{{3}{n.d.}{{Aricology}}{{}}}
\bibcite{ref4}{{4}{n.d.}{{betterprogramming}}{{}}}
\bibcite{sasi11}{{5}{n.d.}{{Center}}{{}}}
\bibcite{colston2018}{{6}{2018}{{Colston et~al.}}{{Colston, Ahmed, Mahopo, Kang, Kosek, de~Sousa~Junior, Shrestha, Svensen, Turab, Zaitchik et~al.}}}
\bibcite{sasi8}{{7}{n.d.}{{Datahub.io}}{{}}}
\bibcite{factsheet2020}{{8}{2020a}{{Department~of Agriculture and\ the Marine}}{{}}}
\bibcite{agricultureseptember2020}{{9}{2020b}{{Department~of Agriculture and\ the Marine}}{{}}}
\bibcite{revieworganicfood}{{10}{2020c}{{Department~of Agriculture and\ the Marine}}{{}}}
\bibcite{annual2021}{{11}{2021a}{{Department~of Agriculture and\ the Marine}}{{}}}
\bibcite{tradefactsheet2020}{{12}{2021b}{{Department~of Agriculture and\ the Marine}}{{}}}
\bibcite{dimitri2002}{{13}{2002}{{Dimitri and\ Greene}}{{}}}
\bibcite{eurostat2008}{{14}{2010}{{eurostat}}{{}}}
\@writefile{toc}{\contentsline {subsection}{\numberline {6.4}Potential Evapotranspiration}{42}{subsection.6.4}\protected@file@percent }
\bibcite{eurostat2020a}{{15}{2020a}{{eurostat}}{{}}}
\bibcite{eurostat2020b}{{16}{2020b}{{eurostat}}{{}}}
\bibcite{sasi15}{{17}{2021a}{{Eurostat}}{{}}}
\bibcite{sasi16}{{18}{2021b}{{Eurostat}}{{}}}
\bibcite{sasi17}{{19}{2021c}{{Eurostat}}{{}}}
\bibcite{sasi2}{{20}{n.d.a}{{Eurostat}}{{}}}
\bibcite{eurostatorganiccrop}{{21}{n.d.b}{{Eurostat}}{{}}}
\bibcite{faoAnnex}{{22}{n.d.}{{FAO}}{{}}}
\bibcite{faostatcrops}{{23}{2020}{{FAOSTAT}}{{}}}
\bibcite{feng2017}{{24}{2017}{{Feng et~al.}}{{Feng, Peng, Cui, Gong and\ Zhang}}}
\bibcite{sasi6}{{25}{2021}{{Fernando}}{{}}}
\bibcite{frankenberger2003}{{26}{2003}{{Frankenberger and\ Turco}}{{}}}
\bibcite{ref3}{{27}{n.d.}{{geeksforgeeks}}{{}}}
\bibcite{sasi3}{{28}{2021}{{Guido and\ M{\"u}ller}}{{}}}
\bibcite{hargreaves1985}{{29}{1985}{{Hargreaves and\ Samani}}{{}}}
\bibcite{sasi18}{{30}{2021}{{IBAN}}{{}}}
\bibcite{sasi14}{{31}{n.d.}{{Ireland}}{{}}}
\bibcite{ishola2019}{{32}{2019}{{Ishola et~al.}}{{Ishola, Fealy, Mills, Fealy, Green, Jimenez-Casteneda and\ Adeyeri}}}
\bibcite{jenkins2020}{{33}{2020}{{Jenkins and\ Quintana-Ascencio}}{{}}}
\bibcite{keawsang2018}{{34}{2018}{{Keawsang-in et~al.}}{{Keawsang-in, Ratjiranukool and\ Ratjiranukool}}}
\bibcite{kirkwood2010}{{35}{2010}{{Kirkwood and\ Sterne}}{{}}}
\bibcite{ifaagm}{{36}{2022}{{McDonagh and\ Whelan}}{{}}}
\bibcite{belmullet}{{37}{2019a}{{Met \'{E}ireann}}{{}}}
\bibcite{casement}{{38}{2019b}{{Met \'{E}ireann}}{{}}}
\bibcite{malin_head}{{39}{2019c}{{Met \'{E}ireann}}{{}}}
\bibcite{valentia}{{40}{2019d}{{Met \'{E}ireann}}{{}}}
\bibcite{mohammadi2015}{{41}{2015}{{Mohammadi et~al.}}{{Mohammadi, Shamshirband, Motamedi, Petković, Hashim and\ Gocic}}}
\bibcite{monteith1965}{{42}{1965}{{Monteith}}{{}}}
\bibcite{novak2021}{{43}{2021}{{Nov{\'a}k et~al.}}{{Nov{\'a}k, Benda, {\v {S}}ilerov{\'a}, Van{\v {e}}k and\ K{\'a}nsk{\'a}}}}
\bibcite{patil2016}{{44}{2016}{{Patil and\ Deka}}{{}}}
\bibcite{pimentel2005}{{45}{2005}{{Pimentel et~al.}}{{Pimentel, Hepperly, Hanson, Seidel and\ Douds}}}
\bibcite{pythonanova}{{46}{n.d.}{{Python for data science}}{{}}}
\bibcite{pyeto}{{47}{2015}{{Richards}}{{}}}
\bibcite{ref2}{{48}{n.d.a}{{Science}}{{}}}
\bibcite{ref6}{{49}{n.d.b}{{Science}}{{}}}
\bibcite{ref1}{{50}{n.d.c}{{Science}}{{}}}
\bibcite{sasi5}{{51}{n.d.a}{{SciKitLearn}}{{}}}
\bibcite{sasi4}{{52}{n.d.b}{{SciKitLearn}}{{}}}
\bibcite{statsmodel}{{53}{2010}{{Seabold and\ Perktold}}{{}}}
\bibcite{neupy}{{54}{2019}{{Shevchuk}}{{}}}
\bibcite{singh2022}{{55}{2022}{{Singh and\ Gli{\'n}ska-Newe{\'s}}}{{}}}
\bibcite{steede2018}{{56}{2018}{{Steede et~al.}}{{Steede, Meyers, Li, Irlbeck and\ Gearhart}}}
\bibcite{sasi7}{{57}{n.d.}{{Studio}}{{}}}
\bibcite{sasi13}{{58}{n.d.}{{Teagsc}}{{}}}
\bibcite{thornthwaite1948}{{59}{1948}{{Thornthwaite}}{{}}}
\bibcite{decl}{{60}{n.d.}{{Voltaics}}{{}}}
\bibcite{worldometerseurope}{{61}{n.d.}{{worldometers.info}}{{}}}
\bibcite{yang2020}{{62}{2020}{{Yang and\ Chiang}}{{}}}
\@writefile{toc}{\contentsline {section}{\numberline {A}Output of Statistical analysis}{46}{appendix.A}\protected@file@percent }
\newlabel{app:stat}{{A}{46}{Output of Statistical analysis}{appendix.A}{}}
\@writefile{toc}{\contentsline {subsection}{\numberline {A.1}Potential Evapotranspiration}{46}{subsection.A.1}\protected@file@percent }
\@writefile{lof}{\contentsline {figure}{\numberline {40}{\ignorespaces Normalised distribution of data in each attribute.\relax }}{46}{figure.caption.52}\protected@file@percent }
\newlabel{fig:dist}{{40}{46}{Normalised distribution of data in each attribute.\relax }{figure.caption.52}{}}
\@writefile{lof}{\contentsline {subfigure}{\numberline{(a)}{\ignorespaces {}}}{46}{subfigure.40.1}\protected@file@percent }
\@writefile{lof}{\contentsline {subfigure}{\numberline{(b)}{\ignorespaces {}}}{46}{subfigure.40.2}\protected@file@percent }
\@writefile{lof}{\contentsline {subfigure}{\numberline{(c)}{\ignorespaces {}}}{46}{subfigure.40.3}\protected@file@percent }
\@writefile{lof}{\contentsline {subfigure}{\numberline{(d)}{\ignorespaces {}}}{46}{subfigure.40.4}\protected@file@percent }
\@writefile{lot}{\contentsline {table}{\numberline {11}{\ignorespaces Descriptive statistics of data from Casement Aerodrome\relax }}{46}{table.caption.53}\protected@file@percent }
\newlabel{tab:CA}{{11}{46}{Descriptive statistics of data from Casement Aerodrome\relax }{table.caption.53}{}}
\@writefile{lot}{\contentsline {table}{\numberline {12}{\ignorespaces Descriptive statistics of data from Malin Head\relax }}{47}{table.caption.54}\protected@file@percent }
\newlabel{tab:MH}{{12}{47}{Descriptive statistics of data from Malin Head\relax }{table.caption.54}{}}
\@writefile{lot}{\contentsline {table}{\numberline {13}{\ignorespaces descriptice statistics of data from Valentia\relax }}{47}{table.caption.55}\protected@file@percent }
\newlabel{tab:VA}{{13}{47}{descriptice statistics of data from Valentia\relax }{table.caption.55}{}}
\@writefile{lot}{\contentsline {table}{\numberline {14}{\ignorespaces Descriptive statistics of data from Belmullet\relax }}{47}{table.caption.56}\protected@file@percent }
\newlabel{tab:BM}{{14}{47}{Descriptive statistics of data from Belmullet\relax }{table.caption.56}{}}
\gdef \@abspage@last{47}
