January,February,March,April,May,June,July,August,September,October,November,December
2022.0,0.9612484574132233,1.4090596846626704,2.355576103187129,2.3950669597159573,4.574938987002679,5.139975739686353,5.537389650495351,5.032266413992301,2.3710659529520957,1.9879756465172458,1.1433364774739276,0.9951591200664172
2023.0,0.9335566851250972,0.9562513102929021,2.468808040633802,3.922820569249152,4.710188819661929,4.541933695161317,3.953960915295368,5.377874251760356,2.2127485083039593,1.8739529037278126,1.1092317774342555,0.6743816648740578
2024.0,1.1518584131101823,1.0735828214299565,2.2431062528581087,2.959304312259681,4.385332751463795,4.757757941240392,3.9622752272375372,4.203142376240262,2.095535332448995,2.310400378437976,1.1872548612672595,1.015684389013001
2025.0,0.7907787797125702,1.4706346992153028,1.4311003197456502,4.018141501890813,4.373477568200744,3.9433466912451234,5.154304428756174,3.5571881860753365,2.1384983893006457,2.0837655025699893,1.132863353575037,1.0752070961292877
