,meant,maxtp,mintp,sun
count,792.0,792.0,792.0,660.0
mean,9.610479797979803,16.636363636363644,2.939772727272727,106.39272727272716
std,3.3003051266200982,4.195978558670212,3.738310420884846,59.94272538340118
min,2.4,6.0,-6.2,9.5
25%,6.7,12.8,0.1,54.77499999999999
50%,9.2,16.3,2.1,98.55
75%,12.7,20.2,6.425000000000001,150.75
max,16.5,27.0,11.1,287.5
