,meant,maxtp,mintp,sun
count,984.0,984.0,984.0,882.0
mean,10.704979674796736,17.711077235772386,2.412195121951218,107.80340136054427
std,3.135321303160548,4.358388884728974,3.85146041959668,55.964910055709105
min,2.6,8.0,-7.7,16.1
25%,8.1,13.7,-0.5,59.2
50%,10.3,17.6,2.0,102.75
75%,13.525,20.9,5.8,147.9
max,18.0,29.8,11.8,308.2
